{
  "k_draw2d": {
    "graphs": [
      {
        "figures": [
          {
            "name": "rectangle",
            "x": 100,
            "y": 20,
            "width": 75,
            "height": 35,
            "color": "green",
            "fill": false
          },
          {
            "name": "circle",
            "x": 120,
            "y": 80,
            "radius": 65,
            "color": "blue",
            "fill": false
          }
        ]
      }
    ],
    "width": 300,
    "height": 250,
    "operation": "draw"
  }
}